{
  "preamble": [],
  "chemicals": {
    "fundamental": ["H+", "e", "He+"],
    "compositions": {
      "H+": ["H+"],
      "e": ["e"],
      "He+": ["He+"],
      "H": ["H+", "e"],
      "He": ["He+", "e"],
      "H2": ["2H+", "2e"],
      "H2+": ["2H+", "e"]
    }
  },
  "reactions": []
}
